<?xml version="1.0" encoding="UTF-8"?>
<svg width="9px" height="13px" viewBox="0 0 9 13" version="1.1" xmlns="http://www.w3.org/2000/svg" xmlns:xlink="http://www.w3.org/1999/xlink">
    <!-- Generator: Sketch 43.2 (39069) - http://www.bohemiancoding.com/sketch -->
    <title>call_ecoute_discrete_inactif</title>
    <desc>Created with Sketch.</desc>
    <defs></defs>
    <g id="Symbols" stroke="none" stroke-width="1" fill="none" fill-rule="evenodd" stroke-linecap="round" stroke-linejoin="round">
        <g id="call_ecoute_discrete_inactif" stroke="#D0D2D3">
            <g id="Group-2" transform="translate(0.500000, 0.500000)">
                <g id="Group-11">
                    <path d="M0.00302132854,4.4615858 C0.00302132854,4.4615858 -0.287887762,-0.538414201 4.83938496,0.0477926959 C9.42120315,0.909861661 8.00302133,6.25468925 6.33029406,7.4615858 C6.33029406,7.4615858 5.78483951,7.97882718 5.71211224,8.59951683 C5.63938496,9.22020649 5.63938496,11.3236548 4.00302133,11.8064134 C2.36665769,12.289172 1.31211224,10.7029651 1.31211224,10.7029651" id="Stroke-1"></path>
                    <path d="M6.36163196,4.05642353 C6.36163196,4.05642353 6.25254105,1.7460787 3.9979956,1.84952698 C1.74345014,1.95297526 1.5979956,3.98745801 1.88890469,4.64263043 C2.17981378,5.29780284 2.87072287,5.84952698 3.34345014,4.78056146 C3.81617742,3.71159595 5.45254105,4.3322856 5.1979956,5.29780284 C4.94345014,6.26332008 3.95152287,6.06290629 3.9979956,7.12538905 C4.02555924,7.75669939 4.36395924,8.2302856 3.81617742,8.67711319 C3.35210469,9.05559595 2.68890469,8.60814767 2.17981378,7.81504422" id="Stroke-3"></path>
                </g>
            </g>
        </g>
    </g>
</svg>