<?xml version="1.0" encoding="UTF-8"?>
<svg width="50px" height="50px" viewBox="0 0 50 50" version="1.1" xmlns="http://www.w3.org/2000/svg" xmlns:xlink="http://www.w3.org/1999/xlink">
    <!-- Generator: Sketch 41.2 (35397) - http://www.bohemiancoding.com/sketch -->
    <title>dtmf_0_default</title>
    <desc>Created with Sketch.</desc>
    <defs></defs>
    <g id="Page-1" stroke="none" stroke-width="1" fill="none" fill-rule="evenodd">
        <g id="dtmf_0_default">
            <ellipse id="Oval-356-Copy-11" fill="#595959" cx="25" cy="25" rx="25" ry="25"></ellipse>
            <path d="M22.05,24.41 C22.05,24.0499982 22.0549999,23.6150025 22.065,23.105 C22.075,22.5949975 22.1099997,22.0700027 22.17,21.53 C22.2300003,20.9899973 22.3299993,20.4550026 22.47,19.925 C22.6100007,19.3949974 22.8049987,18.9200021 23.055,18.5 C23.3050013,18.0799979 23.6249981,17.7400013 24.015,17.48 C24.4050019,17.2199987 24.8899971,17.09 25.47,17.09 C26.0500029,17.09 26.539998,17.2199987 26.94,17.48 C27.340002,17.7400013 27.6699987,18.0799979 27.93,18.5 C28.1900013,18.9200021 28.3849994,19.3949974 28.515,19.925 C28.6450007,20.4550026 28.7449996,20.9899973 28.815,21.53 C28.8850003,22.0700027 28.925,22.5949975 28.935,23.105 C28.945,23.6150025 28.95,24.0499982 28.95,24.41 C28.95,25.010003 28.9300002,25.7349957 28.89,26.585 C28.8499998,27.4350042 28.725001,28.254996 28.515,29.045 C28.3049989,29.835004 27.9650023,30.5099972 27.495,31.07 C27.0249976,31.6300028 26.3500044,31.91 25.47,31.91 C24.6099957,31.91 23.9500023,31.6300028 23.49,31.07 C23.0299977,30.5099972 22.6950011,29.835004 22.485,29.045 C22.274999,28.254996 22.1500002,27.4350042 22.11,26.585 C22.0699998,25.7349957 22.05,25.010003 22.05,24.41 Z M17.79,24.41 C17.79,26.5100105 17.9949979,28.2649929 18.405,29.675 C18.8150021,31.0850071 19.3699965,32.2099958 20.07,33.05 C20.7700035,33.8900042 21.5849953,34.4899982 22.515,34.85 C23.4450047,35.2100018 24.4299948,35.39 25.47,35.39 C26.5300053,35.39 27.5249954,35.2100018 28.455,34.85 C29.3850046,34.4899982 30.2049964,33.8900042 30.915,33.05 C31.6250035,32.2099958 32.1849979,31.0850071 32.595,29.675 C33.0050021,28.2649929 33.21,26.5100105 33.21,24.41 C33.21,22.3699898 33.0050021,20.655007 32.595,19.265 C32.1849979,17.8749931 31.6250035,16.7600042 30.915,15.92 C30.2049964,15.0799958 29.3850046,14.4800018 28.455,14.12 C27.5249954,13.7599982 26.5300053,13.58 25.47,13.58 C24.4299948,13.58 23.4450047,13.7599982 22.515,14.12 C21.5849953,14.4800018 20.7700035,15.0799958 20.07,15.92 C19.3699965,16.7600042 18.8150021,17.8749931 18.405,19.265 C17.9949979,20.655007 17.79,22.3699898 17.79,24.41 Z" id="0" fill="#FFFFFF"></path>
        </g>
    </g>
</svg>