<?xml version="1.0" encoding="UTF-8"?>
<svg width="50px" height="50px" viewBox="0 0 50 50" version="1.1" xmlns="http://www.w3.org/2000/svg" xmlns:xlink="http://www.w3.org/1999/xlink">
    <!-- Generator: Sketch 41.2 (35397) - http://www.bohemiancoding.com/sketch -->
    <title>dtmf_5_over</title>
    <desc>Created with Sketch.</desc>
    <defs></defs>
    <g id="Page-1" stroke="none" stroke-width="1" fill="none" fill-rule="evenodd">
        <g id="dtmf_5_over">
            <ellipse id="Oval-356-Copy-11" fill="#E67C39" cx="25" cy="25" rx="25" ry="25"></ellipse>
            <path d="M32.16,17.51 L32.16,14 L20.43,14 L18.36,25.61 L22.2,25.61 C22.6200021,25.0299971 23.0699976,24.6050014 23.55,24.335 C24.0300024,24.0649986 24.6499962,23.93 25.41,23.93 C25.9900029,23.93 26.4999978,24.029999 26.94,24.23 C27.3800022,24.430001 27.7599984,24.7099982 28.08,25.07 C28.4000016,25.4300018 28.6399992,25.8499976 28.8,26.33 C28.9600008,26.8100024 29.04,27.3199973 29.04,27.86 C29.04,28.3800026 28.9550008,28.8849976 28.785,29.375 C28.6149991,29.8650024 28.3750016,30.2949981 28.065,30.665 C27.7549984,31.0350019 27.3750023,31.3349988 26.925,31.565 C26.4749977,31.7950012 25.9700028,31.91 25.41,31.91 C24.4499952,31.91 23.6600031,31.6250029 23.04,31.055 C22.4199969,30.4849971 22.0600005,29.7200048 21.96,28.76 L17.7,28.76 C17.7200001,29.8600055 17.9449979,30.8249959 18.375,31.655 C18.8050021,32.4850042 19.3799964,33.1799972 20.1,33.74 C20.8200036,34.3000028 21.6449954,34.7149986 22.575,34.985 C23.5050047,35.2550014 24.4799949,35.39 25.5,35.39 C26.5600053,35.4100001 27.5599953,35.2350019 28.5,34.865 C29.4400047,34.4949982 30.2649964,33.9700034 30.975,33.29 C31.6850035,32.6099966 32.2499979,31.8050047 32.67,30.875 C33.0900021,29.9449953 33.3,28.9400054 33.3,27.86 C33.3,26.8799951 33.1550015,25.9550043 32.865,25.085 C32.5749986,24.2149957 32.1550028,23.4600032 31.605,22.82 C31.0549972,22.1799968 30.380004,21.6700019 29.58,21.29 C28.779996,20.9099981 27.8600052,20.72 26.82,20.72 C25.9799958,20.72 25.2300033,20.8449987 24.57,21.095 C23.9099967,21.3450012 23.2900029,21.7599971 22.71,22.34 L22.65,22.28 L23.49,17.51 L32.16,17.51 Z" id="5" fill="#FFFFFF"></path>
        </g>
    </g>
</svg>