<?xml version="1.0" encoding="UTF-8" standalone="no"?>
<svg width="18px" height="18px" viewBox="0 0 18 18" version="1.1" xmlns="http://www.w3.org/2000/svg" xmlns:xlink="http://www.w3.org/1999/xlink">
    <!-- Generator: Sketch 39.1 (31720) - http://www.bohemiancoding.com/sketch -->
    <title>call_statut_outgoing</title>
    <desc>Created with Sketch.</desc>
    <defs></defs>
    <g id="Page-1" stroke="none" stroke-width="1" fill="none" fill-rule="evenodd">
        <g id="ICONS" transform="translate(-763.000000, -518.000000)"></g>
        <g id="call_statut_outgoing">
            <path d="M5.87812627e-14,8.88920455 C5.87812627e-14,8.36647466 0.144884915,7.83807085 0.434659091,7.30397727 C0.7528425,6.73011077 1.05397585,6.38352332 1.33806818,6.26420455 C1.48011435,6.20170423 1.67471467,6.14204574 1.921875,6.08522727 C2.16903533,6.02840881 2.36931741,6 2.52272727,6 C2.60227313,6 2.66193162,6.00852264 2.70170455,6.02556818 C2.80397778,6.05965926 2.95454446,6.27556619 3.15340909,6.67329545 C3.2159094,6.78125054 3.30113582,6.9346581 3.40909091,7.13352273 C3.51704599,7.33238736 3.61647682,7.51278328 3.70738636,7.67471591 C3.79829591,7.83664854 3.88636321,7.98863565 3.97159091,8.13068182 C3.98863645,8.1534092 4.03835186,8.22443122 4.12073864,8.34375 C4.20312541,8.46306878 4.26420435,8.56392004 4.30397727,8.64630682 C4.3437502,8.72869359 4.36363636,8.80965869 4.36363636,8.88920455 C4.36363636,9.00284148 4.28267126,9.14488551 4.12073864,9.31534091 C3.95880601,9.48579631 3.78267141,9.64204474 3.59232955,9.78409091 C3.40198768,9.92613707 3.22585308,10.0767038 3.06392045,10.2357955 C2.90198783,10.3948872 2.82102273,10.5255677 2.82102273,10.6278409 C2.82102273,10.6789775 2.83522713,10.7428973 2.86363636,10.8196023 C2.8920456,10.8963072 2.91619308,10.9545453 2.93607955,10.9943182 C2.95596601,11.0340911 2.99573834,11.1022722 3.05539773,11.1988636 C3.11505712,11.295455 3.14772724,11.3494318 3.15340909,11.3607955 C3.58522943,12.1392084 4.07954267,12.8068154 4.63636364,13.3636364 C5.1931846,13.9204573 5.86079156,14.4147706 6.63920455,14.8465909 C6.65056824,14.8522728 6.70454497,14.8849429 6.80113636,14.9446023 C6.89772776,15.0042617 6.96590889,15.044034 7.00568182,15.0639205 C7.04545474,15.0838069 7.1036928,15.1079544 7.18039773,15.1363636 C7.25710266,15.1647729 7.32102247,15.1789773 7.37215909,15.1789773 C7.47443233,15.1789773 7.60511284,15.0980122 7.76420455,14.9360795 C7.92329625,14.7741469 8.07386293,14.5980123 8.21590909,14.4076705 C8.35795526,14.2173286 8.51420369,14.041194 8.68465909,13.8792614 C8.85511449,13.7173287 8.99715852,13.6363636 9.11079545,13.6363636 C9.19034131,13.6363636 9.27130641,13.6562498 9.35369318,13.6960227 C9.43607996,13.7357957 9.53693122,13.7968746 9.65625,13.8792614 C9.77556878,13.9616481 9.8465908,14.0113636 9.86931818,14.0284091 C10.0113643,14.1136368 10.1633515,14.2017041 10.3252841,14.2926136 C10.4872167,14.3835232 10.6676126,14.482954 10.8664773,14.5909091 C11.0653419,14.6988642 11.2187495,14.7840906 11.3267045,14.8465909 C11.7244338,15.0454555 11.9403407,15.1960222 11.9744318,15.2982955 C11.9914774,15.3380684 12,15.3977269 12,15.4772727 C12,15.6306826 11.9715912,15.8309647 11.9147727,16.078125 C11.8579543,16.3252853 11.7982958,16.5198857 11.7357955,16.6619318 C11.6164767,16.9460241 11.2698892,17.2471575 10.6960227,17.5653409 C10.1619291,17.8551151 9.63352534,18 9.11079545,18 C8.9573856,18 8.80823936,17.9900569 8.66335227,17.9701705 C8.51846518,17.950284 8.35511455,17.914773 8.17329545,17.8636364 C7.99147636,17.8124997 7.85653453,17.771307 7.76846591,17.7400568 C7.68039729,17.7088067 7.52272841,17.6505686 7.29545455,17.5653409 C7.06818068,17.4801132 6.92897753,17.4289774 6.87784091,17.4119318 C6.32101994,17.2130672 5.82386582,16.9772741 5.38636364,16.7045455 C4.65908727,16.2556796 3.90767433,15.6434698 3.13210227,14.8678977 C2.35653021,14.0923257 1.74432043,13.3409127 1.29545455,12.6136364 C1.02272591,12.1761342 0.786932813,11.6789801 0.588068182,11.1221591 C0.571022642,11.0710225 0.51988679,10.9318193 0.434659091,10.7045455 C0.349431392,10.4772716 0.291193338,10.3196027 0.259943182,10.2315341 C0.228693026,10.1434655 0.187500256,10.0085236 0.136363636,9.82670455 C0.085227017,9.64488545 0.0497160085,9.48153482 0.0298295455,9.33664773 C0.00994308239,9.19176064 5.87812627e-14,9.0426144 5.87812627e-14,8.88920455 L5.87812627e-14,8.88920455 Z" id="" fill="#C1C1C1" transform="translate(6.000000, 12.000000) rotate(-360.000000) translate(-6.000000, -12.000000) "></path>
            <g id="Group-6-Copy" transform="translate(13.000000, 5.000000) rotate(-180.000000) translate(-13.000000, -5.000000) translate(8.000000, 0.000000)" fill="#545454">
                <path fill="#e67d39" d="M2.20036966,6.23918712 L8.12360612,0.321627603 C8.55417826,-0.108531872 9.2507584,-0.107011483 9.6794614,0.325023488 C10.1081644,0.757058458 10.1066492,1.45600516 9.67607701,1.88616463 L3.76436796,7.79220778 L6.40103854,7.79220778 C7.00863926,7.79220778 7.50119696,8.2864389 7.50119696,8.89610388 C7.50119696,9.50576886 7.00863926,9.99999998 6.40103854,9.99999998 L1.10036374,9.99999998 C1.10023678,10 1.10010999,10 1.0999832,9.99999998 L5.28239536e-05,9.99999998 L5.28239536e-05,8.90697034 C-1.76083908e-05,8.89973624 -1.76075783e-05,8.89250161 5.28239535e-05,8.88526757 L5.28239536e-05,3.60051949 C5.28239536e-05,2.9908545 0.492610526,2.49662338 1.10021124,2.49662338 C1.70781196,2.49662338 2.20036966,2.9908545 2.20036966,3.60051949 L2.20036966,6.23918712 Z" id="Combined-Shape"></path>
            </g>
        </g>
    </g>
</svg>