<?xml version="1.0" encoding="UTF-8" standalone="no"?>
<svg
   xmlns:dc="http://purl.org/dc/elements/1.1/"
   xmlns:cc="http://creativecommons.org/ns#"
   xmlns:rdf="http://www.w3.org/1999/02/22-rdf-syntax-ns#"
   xmlns:svg="http://www.w3.org/2000/svg"
   xmlns="http://www.w3.org/2000/svg"
   xmlns:xlink="http://www.w3.org/1999/xlink"
   xmlns:sodipodi="http://sodipodi.sourceforge.net/DTD/sodipodi-0.dtd"
   xmlns:inkscape="http://www.inkscape.org/namespaces/inkscape"
   width="80px"
   height="80px"
   viewBox="0 0 80 80"
   version="1.1"
   id="svg28"
   sodipodi:docname="popup_configure_call.svg"
   inkscape:version="0.92.1 r15371">
  <metadata
     id="metadata32">
    <rdf:RDF>
      <cc:Work
         rdf:about="">
        <dc:format>image/svg+xml</dc:format>
        <dc:type
           rdf:resource="http://purl.org/dc/dcmitype/StillImage" />
        <dc:title>popup_incoming_call</dc:title>
      </cc:Work>
    </rdf:RDF>
  </metadata>
  <sodipodi:namedview
     pagecolor="#ffffff"
     bordercolor="#666666"
     borderopacity="1"
     objecttolerance="10"
     gridtolerance="10"
     guidetolerance="10"
     inkscape:pageopacity="0"
     inkscape:pageshadow="2"
     inkscape:window-width="1920"
     inkscape:window-height="1018"
     id="namedview30"
     showgrid="false"
     inkscape:zoom="2"
     inkscape:cx="22.809114"
     inkscape:cy="67.347923"
     inkscape:window-x="0"
     inkscape:window-y="252"
     inkscape:window-maximized="1"
     inkscape:current-layer="svg28" />
  <!-- Generator: Sketch 39.1 (31720) - http://www.bohemiancoding.com/sketch -->
  <title
     id="title2">popup_incoming_call</title>
  <desc
     id="desc4">Created with Sketch.</desc>
  <defs
     id="defs14">
    <path
       d="M35,70 C54.3299662,70 70,54.3299662 70,35 C70,15.6700338 54.3299662,0 35,0 C15.6700338,0 0,15.6700338 0,35 C0,54.3299662 15.6700338,70 35,70 Z"
       id="path-1" />
    <filter
       x="-50%"
       y="-50%"
       width="200%"
       height="200%"
       filterUnits="objectBoundingBox"
       id="filter-2">
      <feOffset
         dx="0"
         dy="2"
         in="SourceAlpha"
         result="shadowOffsetOuter1"
         id="feOffset7" />
      <feGaussianBlur
         stdDeviation="2"
         in="shadowOffsetOuter1"
         result="shadowBlurOuter1"
         id="feGaussianBlur9" />
      <feColorMatrix
         values="0 0 0 0 0   0 0 0 0 0   0 0 0 0 0  0 0 0 0.5 0"
         type="matrix"
         in="shadowBlurOuter1"
         id="feColorMatrix11" />
    </filter>
  </defs>
  <g
     id="Page-1"
     stroke="none"
     stroke-width="1"
     fill="none"
     fill-rule="evenodd">
    <g
       id="popup_incoming_call">
      <g
         id="Group-10"
         transform="translate(5.000000, 4.000000)">
        <g
           id="Oval-1">
          <use
             xlink:href="#path-1"
             id="use16"
             filter="url(#filter-2)"
             fill-opacity="1"
             fill="black" />
          <use
             xlink:href="#path-1"
             id="use18"
             fill-rule="evenodd"
             fill="#FFFFFF" />
        </g>
        <path
           id="path5309"
           d="m 31.338983,-25.516949 q 0,-106.000001 -75,-181.000001 -75.000003,-75 -181.000003,-75 -106,0 -181,75 -75,75 -75,181.000001 0,106 75,180.999999 75,75 181,75 106,0 181.000003,-75 75,-74.999999 75,-180.999999 z M 799.33898,486.48305 q 0,-52 -38,-90 -38,-38 -90,-38 -52,0 -90,38 -38,38 -38,90 0,53 37.5,90.5 37.5,37.5 90.5,37.5 53,0 90.5,-37.5 37.5,-37.5 37.5,-90.5 z m 0,-1024 q 0,-52 -38,-90 -38,-38 -90,-38 -52,0 -90,38 -38,38 -38,90 0,53 37.5,90.5 37.5,37.5 90.5,37.5 53,0 90.5,-37.5 37.5,-37.5 37.5,-90.5 z m -384,421 V 68.483051 q 0,10 -7,19.5 -7,9.5 -16,10.5 l -155,23.999999 q -11,35 -32,76 34,48 90,115 7,11 7,20 0,12 -7,19 -23,30 -82.5,89.5 -59.5,59.5 -78.5,59.5 -11,0 -21,-7 l -114.9999969,-90 q -37.0000001,19 -77.0000001,31 -11,108 -23.000003,155 -7,24 -30,24 h -186 q -11,0 -20,-7.5 -9,-7.5 -10,-17.5 l -23,-153 q -34,-10 -75,-31 l -118,89 q -7,7 -20,7 -11,0 -21,-8 -144,-133 -144,-160 0,-9 7,-19 10,-14 41,-53 31,-39 47,-61 -23,-44 -35,-82 l -152,-23.999999 q -10,-1 -17,-9.5 -7,-8.5 -7,-19.5 V -119.51695 q 0,-10 7,-19.5 7,-9.5 16,-10.5 l 155,-24 q 11,-35 32,-76 -34,-48 -90,-115 -7,-11 -7,-20 0,-12 7,-20 22,-30 82,-89 60,-59 79,-59 11,0 21,7 l 115,90 q 34,-18 77,-32 11,-108 23,-154 7,-24 30,-24 h 186 q 11,0 20,7.5 9,7.5 10,17.5 l 23.000003,153 q 34,10 75.0000001,31 l 117.9999969,-89 q 8,-7 20,-7 11,0 21,8 144,133 144,160 0,8 -7,19 -12,16 -42,54 -30,38 -45,60 23,48 34,82 l 152,23 q 10,2 17,10.5 7,8.5 7,19.5 z m 640.00002,533 v 140 q 0,16 -149.00002,31 -12,27 -30,52 51,113 51,138 0,4 -4,7 -122,71 -124,71 -8,0 -46,-47 -38,-47 -52,-68 -20,2 -30,2 -10,0 -30,-2 -14,21 -52,68 -38,47 -46,47 -2,0 -124,-71 -4,-3 -4,-7 0,-25 51,-138 -18,-25 -30,-52 -149,-15 -149,-31 v -140 q 0,-16 149,-31 13,-29 30,-52 -51,-113 -51,-138 0,-4 4,-7 4,-2 35,-20 31,-18 59,-34 28,-16 30,-16 8,0 46,46.5 38,46.5 52,67.5 20,-2 30,-2 10,0 30,2 51,-71 92,-112 l 6,-2 q 4,0 124,70 4,3 4,7 0,25 -51,138 17,23 30,52 149.00002,15 149.00002,31 z m 0,-1024 v 140 q 0,16 -149.00002,31 -12,27 -30,52 51,113 51,138 0,4 -4,7 -122,71 -124,71 -8,0 -46,-47 -38,-47 -52,-68 -20,2 -30,2 -10,0 -30,-2 -14,21 -52,68 -38,47 -46,47 -2,0 -124,-71 -4,-3 -4,-7 0,-25 51,-138 -18,-25 -30,-52 -149,-15 -149,-31 v -140 q 0,-16 149,-31 13,-29 30,-52 -51,-113 -51,-138 0,-4 4,-7 4,-2 35,-20 31,-18 59,-34 28,-16 30,-16 8,0 46,46.5 38,46.5 52,67.5 20,-2 30,-2 10,0 30,2 51,-71 92,-112 l 6,-2 q 4,0 124,70 4,3 4,7 0,25 -51,138 17,23 30,52 149.00002,15 149.00002,31 z"
           inkscape:connector-curvature="0" />
        <path
           d="m -11.366681,26.966668 q 0,-3.091668 -2.1875,-5.279168 -2.1875,-2.1875 -5.279138,-2.1875 -3.091681,0 -5.279181,2.1875 -2.1875,2.1875 -2.1875,5.279168 0,3.091664 2.1875,5.279164 2.1875,2.1875 5.279181,2.1875 3.091638,0 5.279138,-2.1875 2.1875,-2.1875 2.1875,-5.279164 z m 22.4,14.933332 q 0,-1.516668 -1.108319,-2.625 -1.1083188,-1.108332 -2.625,-1.108332 -1.5166813,0 -2.625,1.108332 -1.1083188,1.108332 -1.1083188,2.625 0,1.545832 1.09375,2.639582 1.09375,1.09375 2.6395688,1.09375 1.5458187,0 2.6395687,-1.09375 Q 11.033319,43.445832 11.033319,41.9 Z m 0,-29.866668 q 0,-1.516664 -1.108319,-2.6250001 Q 8.8166812,8.3 7.3,8.3 5.7833187,8.3 4.675,9.4083319 3.5666812,10.516668 3.5666812,12.033332 q 0,1.545836 1.09375,2.639586 1.09375,1.09375 2.6395688,1.09375 1.5458187,0 2.6395687,-1.09375 1.0937503,-1.09375 1.0937503,-2.639586 z M -0.16668128,24.3125 v 5.395832 q 0,0.291668 -0.2041375,0.56875 -0.20418125,0.277086 -0.46668124,0.30625 l -4.52081878,0.7 Q -5.6791813,32.304168 -6.2916813,33.5 -5.3,34.9 -3.6666813,36.854168 -3.4625,37.175 -3.4625,37.4375 q 0,0.35 -0.2041813,0.554168 -0.6708187,0.875 -2.40625,2.610414 Q -7.8083188,42.3375 -8.3625,42.3375 q -0.3208188,0 -0.6125,-0.204168 l -3.354181,-2.625 Q -13.408319,40.0625 -14.575,40.4125 q -0.320819,3.15 -0.670819,4.520832 -0.204181,0.7 -0.875,0.7 h -5.425013 q -0.320836,0 -0.583336,-0.21875 -0.2625,-0.21875 -0.291664,-0.510414 l -0.670836,-4.4625 Q -24.083332,40.15 -25.279168,39.5375 l -3.441664,2.595832 Q -28.925,42.3375 -29.304168,42.3375 q -0.320832,0 -0.6125,-0.233332 -4.2,-3.879168 -4.2,-4.666668 0,-0.2625 0.204168,-0.554168 Q -33.620832,36.475 -32.716668,35.3375 -31.8125,34.2 -31.345832,33.558332 -32.016668,32.275 -32.366668,31.166668 l -4.433332,-0.7 Q -37.091668,30.4375 -37.295832,30.189582 -37.5,29.941668 -37.5,29.620832 V 24.225 q 0,-0.291668 0.204168,-0.56875 0.204164,-0.277082 0.466664,-0.30625 l 4.520836,-0.7 q 0.320832,-1.020832 0.933332,-2.216668 -0.991668,-1.4 -2.625,-3.354164 -0.204168,-0.320836 -0.204168,-0.583336 0,-0.35 0.204168,-0.583332 0.641668,-0.875 2.391668,-2.595832 1.75,-1.720836 2.304164,-1.720836 0.320836,0 0.6125,0.204168 l 3.354168,2.625 q 0.991668,-0.525 2.245832,-0.933332 0.320836,-3.15 0.670836,-4.491668 0.204164,-0.7 0.875,-0.7 h 5.425013 q 0.320819,0 0.583319,0.21875 0.2625,0.21875 0.291681,0.5104181 L -14.575,13.491668 q 0.991681,0.291664 2.1875,0.904164 L -8.9458188,11.8 Q -8.7125,11.595832 -8.3625,11.595832 q 0.3208187,0 0.6125,0.233336 4.2,3.879164 4.2,4.666664 0,0.233336 -0.2041813,0.554168 -0.35,0.466668 -1.225,1.575 -0.875,1.108332 -1.3125,1.75 0.6708625,1.4 0.9916813,2.391668 l 4.43331873,0.670832 q 0.29168124,0.05833 0.49586249,0.30625 0.2041375,0.247918 0.2041375,0.56875 z M 18.5,39.858332 v 4.083336 q 0,0.466664 -4.345819,0.904164 -0.35,0.7875 -0.875,1.516668 1.4875,3.295832 1.4875,4.025 0,0.116668 -0.116681,0.204168 Q 11.091681,52.6625 11.033319,52.6625 10.8,52.6625 9.6916812,51.291668 8.5833187,49.920832 8.175,49.308332 q -0.5833188,0.05834 -0.875,0.05834 -0.2916813,0 -0.875,-0.05834 -0.4083188,0.6125 -1.5166813,1.983336 Q 3.8,52.6625 3.5666812,52.6625 q -0.058363,0 -3.61668123,-2.070832 -0.11668125,-0.0875 -0.11668125,-0.204168 0,-0.729168 1.48749998,-4.025 Q 0.79581872,45.633332 0.44581872,44.845832 -3.9,44.408332 -3.9,43.941668 v -4.083336 q 0,-0.466664 4.34581872,-0.904164 0.37918125,-0.845836 0.87499998,-1.516668 -1.48749998,-3.295832 -1.48749998,-4.025 0,-0.116668 0.11668125,-0.204168 Q 0.06668122,33.15 0.97081872,32.625 1.875,32.1 2.6916812,31.633332 q 0.8166375,-0.466664 0.875,-0.466664 0.2333188,0 1.3416375,1.35625 1.1083625,1.35625 1.5166813,1.96875 0.5833187,-0.05834 0.875,-0.05834 0.2916812,0 0.875,0.05834 1.4875,-2.070836 2.683319,-3.266668 l 0.175,-0.05833 q 0.116681,0 3.616681,2.041664 0.116681,0.0875 0.116681,0.204168 0,0.729168 -1.4875,4.025 0.495819,0.670832 0.875,1.516668 Q 18.5,39.391668 18.5,39.858332 Z m 0,-29.8666639 V 14.075 q 0,0.466668 -4.345819,0.904168 -0.35,0.7875 -0.875,1.516664 1.4875,3.295836 1.4875,4.025 0,0.116668 -0.116681,0.204168 -3.558319,2.070832 -3.616681,2.070832 Q 10.8,22.795832 9.6916812,21.425 8.5833187,20.054168 8.175,19.441668 7.5916812,19.5 7.3,19.5 7.0083187,19.5 6.425,19.441668 6.0166812,20.054168 4.9083187,21.425 3.8,22.795832 3.5666812,22.795832 q -0.058363,0 -3.61668123,-2.070832 -0.11668125,-0.0875 -0.11668125,-0.204168 0,-0.729164 1.48749998,-4.025 Q 0.79581872,15.766668 0.44581872,14.979168 -3.9,14.541668 -3.9,14.075 V 9.9916681 Q -3.9,9.525 0.44581872,9.0875 0.82499997,8.2416681 1.3208187,7.5708319 -0.16668128,4.275 -0.16668128,3.5458319 q 0,-0.1166638 0.11668125,-0.2041638 Q 0.06668122,3.2833319 0.97081872,2.7583319 1.875,2.2333319 2.6916812,1.7666681 3.5083187,1.3 3.5666812,1.3 3.8,1.3 4.9083187,2.65625 6.0166812,4.0125 6.425,4.625 7.0083187,4.5666681 7.3,4.5666681 q 0.2916812,0 0.875,0.058332 Q 9.6625,2.5541682 10.858319,1.358332 L 11.033319,1.3 Q 11.15,1.3 14.65,3.3416681 q 0.116681,0.0875 0.116681,0.2041638 0,0.7291681 -1.4875,4.025 Q 13.775,8.2416681 14.154181,9.0875 18.5,9.525 18.5,9.9916681 Z"
           id="path5969"
           inkscape:connector-curvature="0"
           style="stroke-width:0.02916667" />
      </g>
    </g>
  </g>
  <path
     d="m 184.7333,62.46667 q 0,-7.06667 -5,-12.06667 -5,-5 -12.0666,-5 -7.0667,0 -12.0667,5 -5,5 -5,12.06667 0,7.06666 5,12.06666 5,5 12.0667,5 7.0666,0 12.0666,-5 5,-5 5,-12.06666 z m 51.2,34.13333 q 0,-3.46667 -2.5333,-6 -2.5333,-2.53333 -6,-2.53333 -3.4667,0 -6,2.53333 -2.5333,2.53333 -2.5333,6 0,3.53333 2.5,6.03333 2.5,2.5 6.0333,2.5 3.5333,0 6.0333,-2.5 2.5,-2.5 2.5,-6.03333 z m 0,-68.26667 q 0,-3.46666 -2.5333,-6 -2.5333,-2.53333 -6,-2.53333 -3.4667,0 -6,2.53333 -2.5333,2.53334 -2.5333,6 0,3.53334 2.5,6.03334 2.5,2.5 6.0333,2.5 3.5333,0 6.0333,-2.5 2.5,-2.5 2.5,-6.03334 z M 210.3333,56.4 v 12.33333 q 0,0.66667 -0.4666,1.3 -0.4667,0.63334 -1.0667,0.7 l -10.3333,1.6 q -0.7334,2.33334 -2.1334,5.06667 2.2667,3.2 6,7.66667 Q 202.8,85.8 202.8,86.4 q 0,0.8 -0.4667,1.26667 -1.5333,2 -5.5,5.96666 Q 192.8667,97.6 191.6,97.6 q -0.7333,0 -1.4,-0.46667 l -7.6667,-6 Q 180.0667,92.4 177.4,93.2 q -0.7333,7.2 -1.5333,10.33333 -0.4667,1.6 -2,1.6 h -12.40003 q -0.73334,0 -1.33334,-0.5 -0.6,-0.5 -0.66666,-1.16666 l -1.53334,-10.2 q -2.26666,-0.66667 -5,-2.06667 l -7.86666,5.93333 Q 144.6,97.6 143.73333,97.6 q -0.73333,0 -1.4,-0.53333 -9.6,-8.86667 -9.6,-10.66667 0,-0.6 0.46667,-1.26667 Q 133.86667,84.2 135.93333,81.6 138,79 139.06667,77.53333 137.53333,74.6 136.73333,72.06667 L 126.6,70.46667 Q 125.93333,70.4 125.46667,69.83333 125,69.26667 125,68.53333 V 56.2 q 0,-0.66667 0.46667,-1.3 0.46666,-0.63333 1.06666,-0.7 l 10.33334,-1.6 Q 137.6,50.26667 139,47.53333 q -2.26667,-3.2 -6,-7.66666 -0.46667,-0.73334 -0.46667,-1.33334 0,-0.8 0.46667,-1.33333 1.46667,-2 5.46667,-5.93333 4,-3.93334 5.26666,-3.93334 0.73334,0 1.4,0.46667 l 7.66667,6 q 2.26667,-1.2 5.13333,-2.13333 0.73334,-7.2 1.53334,-10.26667 0.46666,-1.6 2,-1.6 h 12.40003 q 0.7333,0 1.3333,0.5 0.6,0.5 0.6667,1.16667 l 1.5333,10.2 q 2.2667,0.66666 5,2.06666 L 190.2667,27.8 q 0.5333,-0.46667 1.3333,-0.46667 0.7333,0 1.4,0.53334 9.6,8.86666 9.6,10.66666 0,0.53334 -0.4667,1.26667 -0.8,1.06667 -2.8,3.6 -2,2.53333 -3,4 1.5334,3.2 2.2667,5.46667 L 208.7333,54.4 q 0.6667,0.13333 1.1334,0.7 0.4666,0.56667 0.4666,1.3 z M 253,91.93333 v 9.33334 q 0,1.06666 -9.9333,2.06666 -0.8,1.8 -2,3.46667 3.4,7.53333 3.4,9.2 0,0.26667 -0.2667,0.46667 -8.1333,4.73333 -8.2667,4.73333 -0.5333,0 -3.0666,-3.13333 -2.5334,-3.13334 -3.4667,-4.53334 -1.3333,0.13334 -2,0.13334 -0.6667,0 -2,-0.13334 -0.9333,1.4 -3.4667,4.53334 Q 219.4,121.2 218.8667,121.2 q -0.1334,0 -8.2667,-4.73333 -0.2667,-0.2 -0.2667,-0.46667 0,-1.66667 3.4,-9.2 -1.2,-1.66667 -2,-3.46667 -9.9333,-1 -9.9333,-2.06666 v -9.33334 q 0,-1.06666 9.9333,-2.06666 0.8667,-1.93334 2,-3.46667 -3.4,-7.53333 -3.4,-9.2 0,-0.26667 0.2667,-0.46667 Q 210.8667,76.6 212.9333,75.4 215,74.2 216.8667,73.13333 q 1.8666,-1.06666 2,-1.06666 0.5333,0 3.0666,3.1 2.5334,3.1 3.4667,4.5 1.3333,-0.13334 2,-0.13334 0.6667,0 2,0.13334 3.4,-4.73334 6.1333,-7.46667 l 0.4,-0.13333 q 0.2667,0 8.2667,4.66666 0.2667,0.2 0.2667,0.46667 0,1.66667 -3.4,9.2 1.1333,1.53333 2,3.46667 9.9333,1 9.9333,2.06666 z m 0,-68.26666 V 33 q 0,1.06667 -9.9333,2.06667 -0.8,1.8 -2,3.46666 3.4,7.53334 3.4,9.2 0,0.26667 -0.2667,0.46667 -8.1333,4.73333 -8.2667,4.73333 -0.5333,0 -3.0666,-3.13333 -2.5334,-3.13333 -3.4667,-4.53333 -1.3333,0.13333 -2,0.13333 -0.6667,0 -2,-0.13333 -0.9333,1.4 -3.4667,4.53333 -2.5333,3.13333 -3.0666,3.13333 -0.1334,0 -8.2667,-4.73333 -0.2667,-0.2 -0.2667,-0.46667 0,-1.66666 3.4,-9.2 -1.2,-1.66666 -2,-3.46666 Q 201.8,34.06667 201.8,33 v -9.33333 q 0,-1.06667 9.9333,-2.06667 0.8667,-1.93333 2,-3.46667 -3.4,-7.53333 -3.4,-9.2 0,-0.26666 0.2667,-0.46666 0.2667,-0.13334 2.3333,-1.33334 2.0667,-1.2 3.9334,-2.26666 1.8666,-1.06667 2,-1.06667 0.5333,0 3.0666,3.1 2.5334,3.1 3.4667,4.5 1.3333,-0.13333 2,-0.13333 0.6667,0 2,0.13333 3.4,-4.73333 6.1333,-7.46667 l 0.4,-0.13333 q 0.2667,0 8.2667,4.66667 0.2667,0.2 0.2667,0.46666 0,1.66667 -3.4,9.2 1.1333,1.53334 2,3.46667 9.9333,1 9.9333,2.06667 z"
     id="path5969-8"
     inkscape:connector-curvature="0"
     style="stroke-width:0.06666667;opacity:0" />
  <path
     d="m 37.730199,38.522919 q 0,-2.373957 -1.679687,-4.053644 -1.679686,-1.679691 -4.053625,-1.679691 -2.373967,0 -4.053658,1.679691 -1.679686,1.679687 -1.679686,4.053644 0,2.373958 1.679686,4.053644 1.679691,1.679687 4.053658,1.679687 2.373939,0 4.053625,-1.679687 1.679687,-1.679686 1.679687,-4.053644 z m 17.2,11.466665 q 0,-1.164584 -0.851029,-2.015622 -0.851033,-0.851043 -2.015627,-0.851043 -1.164594,0 -2.015623,0.851043 -0.851033,0.851038 -0.851033,2.015622 0,1.186979 0.839844,2.026822 0.839843,0.839844 2.026812,0.839844 1.186969,0 2.026812,-0.839844 0.839844,-0.839843 0.839844,-2.026822 z m 0,-22.933333 q 0,-1.164582 -0.851029,-2.015624 -0.851033,-0.851041 -2.015627,-0.851041 -1.164594,0 -2.015623,0.851041 -0.851033,0.851042 -0.851033,2.015624 0,1.186982 0.839844,2.026825 0.839843,0.839843 2.026812,0.839843 1.186969,0 2.026812,-0.839843 0.839844,-0.839843 0.839844,-2.026825 z m -8.6,9.428647 v 4.143229 q 0,0.223957 -0.156748,0.436715 Q 46.01667,41.277605 45.815107,41.3 l -3.471347,0.5375 q -0.246375,0.783855 -0.716684,1.702084 0.761467,1.075 2.015623,2.575521 0.15678,0.246357 0.15678,0.44792 0,0.26875 -0.15678,0.425521 -0.515092,0.671873 -1.847658,2.004424 -1.332531,1.332555 -1.758062,1.332555 -0.246342,0 -0.470309,-0.156775 l -2.575535,-2.015623 q -0.828625,0.425521 -1.724465,0.694271 -0.246346,2.41875 -0.515096,3.471352 -0.156781,0.5375 -0.671873,0.5375 h -4.165637 q -0.246356,0 -0.447919,-0.167967 -0.201559,-0.16797 -0.223954,-0.391928 l -0.515105,-3.426559 q -0.761458,-0.223962 -1.679691,-0.694271 l -2.642704,1.993225 q -0.156771,0.156775 -0.447919,0.156775 -0.246352,0 -0.470314,-0.17917 -3.225,-2.978643 -3.225,-3.58333 0,-0.201563 0.156771,-0.425525 0.223962,-0.313538 0.918229,-1.186975 0.694271,-0.873441 1.052606,-1.366148 -0.515106,-0.985415 -0.783856,-1.836458 l -3.404165,-0.5375 q -0.223957,-0.02242 -0.380729,-0.212763 -0.156771,-0.19036 -0.156771,-0.436715 v -4.143229 q 0,-0.223962 0.156771,-0.436721 0.156772,-0.212758 0.358331,-0.235157 L 21.65,35.208334 q 0.246357,-0.783851 0.71667,-1.702084 -0.761462,-1.075 -2.015627,-2.575517 -0.156771,-0.246356 -0.156771,-0.44792 0,-0.26875 0.156771,-0.447915 0.492707,-0.671873 1.836457,-1.993229 1.34375,-1.321355 1.769272,-1.321355 0.246356,0 0.470314,0.156772 l 2.575521,2.015626 q 0.761457,-0.403128 1.724479,-0.716666 0.246355,-2.418751 0.515105,-3.44896 0.156767,-0.5375 0.671873,-0.5375 h 4.165637 q 0.246342,0 0.447906,0.167969 0.201563,0.167968 0.223967,0.391927 l 0.515096,3.426564 Q 36.028137,28.4 36.946357,28.870313 l 2.642717,-1.993227 q 0.179155,-0.156772 0.447905,-0.156772 0.246347,0 0.470314,0.179168 3.225,2.978645 3.225,3.583331 0,0.17917 -0.156781,0.425521 -0.26875,0.358335 -0.940627,1.209378 -0.671873,0.851038 -1.007809,1.34375 0.515125,1.075 0.761467,1.836457 l 3.404156,0.515106 q 0.223971,0.04479 0.380752,0.235152 0.156748,0.190369 0.156748,0.436721 z m 14.333344,11.936979 v 3.135419 q 0,0.358331 -3.336969,0.694267 -0.26875,0.604687 -0.671873,1.164585 1.142186,2.530729 1.142186,3.090627 0,0.08958 -0.08959,0.156771 -2.732283,1.590102 -2.777094,1.590102 -0.179156,0 -1.030189,-1.052602 -0.851061,-1.052605 -1.16459,-1.522919 -0.44791,0.04479 -0.671877,0.04479 -0.223967,0 -0.671873,-0.04479 -0.313533,0.470314 -1.164594,1.522919 -0.851033,1.052602 -1.030189,1.052602 -0.04484,0 -2.777094,-1.590102 -0.08959,-0.06719 -0.08959,-0.156771 0,-0.559898 1.142186,-3.090627 Q 47.06927,52.85625 46.80052,52.251563 43.463551,51.915627 43.463551,51.557296 v -3.135419 q 0,-0.358331 3.336969,-0.694272 0.291158,-0.649478 0.671873,-1.16458 -1.142186,-2.530729 -1.142186,-3.090627 0,-0.08959 0.08959,-0.156771 0.08959,-0.04479 0.783842,-0.447915 0.694285,-0.403128 1.321375,-0.761462 0.627066,-0.358331 0.671877,-0.358331 0.179156,0 1.030189,1.041407 0.851061,1.041407 1.164594,1.51172 0.447906,-0.04479 0.671873,-0.04479 0.223967,0 0.671877,0.04479 1.142187,-1.590105 2.060406,-2.508334 l 0.134373,-0.04479 q 0.08959,0 2.777094,1.567708 0.08959,0.06719 0.08959,0.156771 0,0.559898 -1.142186,3.090627 0.380719,0.515102 0.671873,1.16458 3.336969,0.335941 3.336969,0.694272 z m 0,-22.933331 v 3.135416 q 0,0.358334 -3.336969,0.694271 -0.26875,0.604686 -0.671873,1.16458 1.142186,2.530733 1.142186,3.090628 0,0.08958 -0.08959,0.156771 -2.732283,1.590101 -2.777094,1.590101 -0.179156,0 -1.030189,-1.052601 -0.851061,-1.052607 -1.16459,-1.522916 -0.44791,0.04479 -0.671877,0.04479 -0.223967,0 -0.671873,-0.04479 -0.313533,0.470309 -1.164594,1.522916 -0.851033,1.052601 -1.030189,1.052601 -0.04484,0 -2.777094,-1.590101 -0.08959,-0.06719 -0.08959,-0.156771 0,-0.559895 1.142186,-3.090628 -0.403123,-0.559894 -0.671873,-1.16458 -3.336969,-0.335937 -3.336969,-0.694271 v -3.135416 q 0,-0.358335 3.336969,-0.694273 0.291158,-0.649477 0.671873,-1.164585 -1.142186,-2.530727 -1.142186,-3.090624 0,-0.08958 0.08959,-0.156768 0.08959,-0.0448 0.783842,-0.447919 0.694285,-0.403126 1.321375,-0.761457 0.627066,-0.358334 0.671877,-0.358334 0.179156,0 1.030189,1.041405 0.851061,1.041407 1.164594,1.51172 0.447906,-0.0448 0.671873,-0.0448 0.223967,0 0.671877,0.0448 1.142187,-1.590103 2.060406,-2.508334 l 0.134373,-0.0448 q 0.08959,0 2.777094,1.567709 0.08959,0.06719 0.08959,0.156768 0,0.559897 -1.142186,3.090625 0.380719,0.515107 0.671873,1.164584 3.336969,0.335938 3.336969,0.694273 z"
     id="path5969-2"
     inkscape:connector-curvature="0"
     style="fill:#595959;fill-opacity:1;stroke-width:0.02239584" />
</svg>
