<?xml version="1.0" encoding="UTF-8" standalone="no"?>
<svg
   xmlns:dc="http://purl.org/dc/elements/1.1/"
   xmlns:cc="http://creativecommons.org/ns#"
   xmlns:rdf="http://www.w3.org/1999/02/22-rdf-syntax-ns#"
   xmlns:svg="http://www.w3.org/2000/svg"
   xmlns="http://www.w3.org/2000/svg"
   xmlns:xlink="http://www.w3.org/1999/xlink"
   xmlns:sodipodi="http://sodipodi.sourceforge.net/DTD/sodipodi-0.dtd"
   xmlns:inkscape="http://www.inkscape.org/namespaces/inkscape"
   width="80px"
   height="80px"
   viewBox="0 0 80 80"
   version="1.1"
   id="svg5179"
   sodipodi:docname="webrtc_forward_logo.svg"
   inkscape:version="0.92.1 r15371">
  <metadata
     id="metadata5183">
    <rdf:RDF>
      <cc:Work
         rdf:about="">
        <dc:format>image/svg+xml</dc:format>
        <dc:type
           rdf:resource="http://purl.org/dc/dcmitype/StillImage" />
        <dc:title>renvoi_log</dc:title>
      </cc:Work>
    </rdf:RDF>
  </metadata>
  <sodipodi:namedview
     pagecolor="#ffffff"
     bordercolor="#666666"
     borderopacity="1"
     objecttolerance="10"
     gridtolerance="10"
     guidetolerance="10"
     inkscape:pageopacity="0"
     inkscape:pageshadow="2"
     inkscape:window-width="1920"
     inkscape:window-height="1018"
     id="namedview5181"
     showgrid="false"
     inkscape:zoom="2.95"
     inkscape:cx="-35.254237"
     inkscape:cy="36.61017"
     inkscape:window-x="0"
     inkscape:window-y="25"
     inkscape:window-maximized="1"
     inkscape:current-layer="svg5179" />
  <!-- Generator: Sketch 39.1 (31720) - http://www.bohemiancoding.com/sketch -->
  <title
     id="title5157">renvoi_log</title>
  <desc
     id="desc5159">Created with Sketch.</desc>
  <defs
     id="defs5169">
    <path
       d="M40,75 C59.3299662,75 75,59.3299662 75,40 C75,20.6700338 59.3299662,5 40,5 C20.6700338,5 5,20.6700338 5,40 C5,59.3299662 20.6700338,75 40,75 Z"
       id="path-1" />
    <filter
       x="-50%"
       y="-50%"
       width="200%"
       height="200%"
       filterUnits="objectBoundingBox"
       id="filter-2">
      <feOffset
         dx="0"
         dy="2"
         in="SourceAlpha"
         result="shadowOffsetOuter1"
         id="feOffset5162" />
      <feGaussianBlur
         stdDeviation="2"
         in="shadowOffsetOuter1"
         result="shadowBlurOuter1"
         id="feGaussianBlur5164" />
      <feColorMatrix
         values="0 0 0 0 0   0 0 0 0 0   0 0 0 0 0  0 0 0 0.5 0"
         type="matrix"
         in="shadowBlurOuter1"
         id="feColorMatrix5166" />
    </filter>
  </defs>
  <g
     id="Page-1"
     stroke-width="1"
     stroke="none"
     fill-rule="evenodd"
     fill="none">
    <g
       id="renvoi_log">
      <g id="Oval">
      </g>
      <path
         d="m 35.544052,57.463012 c -0.144043,-0.360106 -0.108033,-0.675194 0.108031,-0.945273 l 4.321251,-5.185501 c 0.162048,-0.198059 0.38711,-0.297086 0.675195,-0.297086 h 8.642502 V 33.750148 H 44.10553 c -0.720212,0 -1.242358,-0.333093 -1.566453,-0.999289 -0.306091,-0.666196 -0.225068,-1.278368 0.24307,-1.836532 l 8.642502,-10.371002 c 0.324095,-0.396117 0.765218,-0.594172 1.323383,-0.594172 0.558164,0 0.999287,0.198055 1.323383,0.594172 l 8.642502,10.371002 c 0.486143,0.57617 0.567165,1.188341 0.24307,1.836532 -0.324095,0.666196 -0.846241,0.999289 -1.566453,0.999289 h -5.185501 v 23.334755 c 0,0.252074 -0.08102,0.459132 -0.243071,0.62118 -0.162048,0.162047 -0.369105,0.24307 -0.62118,0.24307 H 36.327278 c -0.378111,0 -0.639184,-0.162045 -0.783226,-0.486141 z"
         id=""
         inkscape:connector-curvature="0"
         style="fill:#e67d39" />
    </g>
  </g>
  <g
     style="visibility:inherit;fill:#595959;fill-opacity:1"
     visibility="inherit"
     id="g40"
     transform="matrix(0.57386886,0,0,0.57386886,3.8302538,20.406533)">
    <path
       inkscape:connector-curvature="0"
       id="use34"
       d="m 59.42,22.01 h 0.1 l 0.09,0.01 0.09,0.01 0.1,0.01 0.09,0.01 0.09,0.02 0.09,0.02 0.08,0.02 0.09,0.02 0.09,0.02 0.08,0.03 0.09,0.02 0.08,0.04 0.08,0.03 0.09,0.03 0.08,0.04 0.08,0.04 0.08,0.04 0.08,0.04 0.07,0.04 0.08,0.05 0.08,0.05 0.07,0.05 0.08,0.05 0.07,0.06 0.08,0.05 0.07,0.06 0.07,0.06 0.07,0.07 0.07,0.06 0.07,0.07 0.06,0.07 0.07,0.07 0.06,0.07 0.06,0.07 0.06,0.07 0.06,0.08 0.06,0.07 0.05,0.07 0.05,0.08 0.05,0.08 0.04,0.07 0.05,0.08 0.04,0.08 0.04,0.08 0.04,0.08 0.04,0.08 0.03,0.08 0.03,0.09 0.03,0.08 0.03,0.09 0.03,0.08 0.02,0.09 0.02,0.09 0.02,0.08 0.02,0.09 0.02,0.09 0.01,0.09 0.01,0.09 0.01,0.1 0.01,0.09 v 0.09 l 0.01,0.1 v 0.09 26.13 0.09 l -0.01,0.1 v 0.09 l -0.01,0.09 -0.01,0.1 -0.01,0.09 -0.01,0.09 -0.02,0.09 -0.02,0.09 -0.02,0.09 -0.02,0.08 -0.02,0.09 -0.03,0.08 -0.03,0.09 -0.03,0.08 -0.03,0.09 -0.03,0.08 -0.04,0.08 -0.04,0.08 -0.04,0.08 -0.04,0.08 -0.05,0.08 -0.04,0.07 -0.05,0.08 -0.05,0.08 -0.05,0.07 -0.06,0.07 -0.06,0.08 -0.06,0.07 -0.06,0.07 -0.06,0.07 -0.07,0.07 -0.06,0.07 -0.07,0.07 -0.07,0.06 -0.07,0.07 -0.07,0.06 -0.07,0.06 -0.08,0.05 -0.07,0.06 -0.08,0.05 -0.07,0.05 -0.08,0.05 -0.08,0.05 -0.07,0.04 -0.08,0.04 -0.08,0.04 -0.08,0.04 -0.08,0.04 -0.09,0.03 -0.08,0.04 -0.08,0.03 -0.09,0.02 -0.08,0.03 -0.09,0.02 -0.09,0.02 -0.08,0.02 -0.09,0.02 -0.09,0.02 -0.09,0.01 -0.1,0.01 -0.09,0.01 -0.09,0.01 h -0.09 l -0.1,0.01 H 59.24 46.17 v 0.05 0.06 l 0.01,0.05 v 0.05 0.06 l 0.01,0.05 v 0.06 l 0.01,0.05 v 0.06 l 0.01,0.05 0.01,0.06 v 0.06 l 0.01,0.05 0.01,0.06 0.01,0.05 0.01,0.06 0.02,0.06 0.01,0.05 0.01,0.06 0.01,0.06 0.02,0.05 0.01,0.06 0.02,0.06 0.02,0.05 0.01,0.06 0.02,0.06 0.02,0.06 0.02,0.06 0.02,0.05 0.02,0.06 0.02,0.06 0.02,0.06 0.03,0.06 0.02,0.06 0.02,0.06 0.03,0.05 0.02,0.06 0.02,0.06 0.03,0.05 0.02,0.06 0.02,0.06 0.03,0.05 0.02,0.06 0.02,0.05 0.03,0.05 0.02,0.06 0.02,0.05 0.03,0.05 0.02,0.06 0.02,0.05 0.03,0.05 0.02,0.05 0.02,0.05 0.03,0.05 0.02,0.05 0.02,0.05 0.03,0.05 0.02,0.04 0.02,0.05 0.03,0.05 0.02,0.05 0.02,0.04 0.03,0.05 0.02,0.04 0.02,0.05 0.03,0.04 0.02,0.05 0.02,0.04 0.02,0.04 0.02,0.04 0.02,0.05 0.02,0.04 0.02,0.04 0.02,0.03 0.02,0.04 0.01,0.04 0.02,0.03 0.01,0.04 0.02,0.04 0.01,0.03 0.02,0.03 0.01,0.03 0.01,0.04 0.01,0.03 0.01,0.03 0.01,0.03 0.01,0.03 0.01,0.02 v 0.03 l 0.01,0.03 0.01,0.02 v 0.03 l 0.01,0.02 v 0.02 0.03 l 0.01,0.02 v 0.02 0.02 0.02 0.04 0.03 0.04 l -0.01,0.04 v 0.03 0.04 l -0.01,0.03 -0.01,0.04 v 0.04 l -0.01,0.03 -0.01,0.04 -0.01,0.03 -0.01,0.03 -0.01,0.04 -0.01,0.03 -0.02,0.03 -0.01,0.04 -0.02,0.03 -0.01,0.03 -0.02,0.03 -0.01,0.03 -0.02,0.04 -0.02,0.03 -0.02,0.03 -0.02,0.03 -0.02,0.03 -0.03,0.03 -0.02,0.03 -0.02,0.03 -0.03,0.02 -0.02,0.03 -0.03,0.03 -0.03,0.03 -0.02,0.03 -0.03,0.02 -0.03,0.03 -0.03,0.02 -0.03,0.03 -0.03,0.02 -0.03,0.02 -0.03,0.02 -0.03,0.02 -0.03,0.02 -0.03,0.02 -0.03,0.02 -0.03,0.02 -0.03,0.01 -0.04,0.02 -0.03,0.01 -0.03,0.02 -0.03,0.01 -0.04,0.01 -0.03,0.01 -0.03,0.01 -0.04,0.01 -0.03,0.01 -0.04,0.01 -0.03,0.01 h -0.04 l -0.04,0.01 h -0.03 l -0.04,0.01 H 46.29 46.25 46.21 46.17 33.88 33.84 33.81 33.77 33.73 L 33.69,61.94 H 33.66 L 33.62,61.93 H 33.59 L 33.55,61.92 33.52,61.91 33.48,61.9 33.45,61.89 33.41,61.88 33.38,61.87 33.35,61.86 33.31,61.85 33.28,61.83 33.25,61.82 33.22,61.8 33.19,61.79 33.15,61.77 33.12,61.75 33.09,61.73 33.06,61.71 33.03,61.69 33,61.67 32.97,61.65 32.94,61.63 32.91,61.6 32.88,61.58 32.86,61.55 32.83,61.53 32.8,61.5 32.77,61.47 32.75,61.44 32.72,61.41 32.7,61.39 32.67,61.36 32.65,61.33 32.63,61.3 32.61,61.27 32.58,61.24 32.57,61.21 32.55,61.18 32.53,61.14 32.51,61.11 32.49,61.08 32.48,61.05 32.46,61.02 32.45,60.98 32.44,60.95 32.43,60.92 32.41,60.88 32.4,60.85 32.39,60.82 V 60.78 L 32.38,60.75 32.37,60.71 32.36,60.67 V 60.64 L 32.35,60.6 V 60.57 60.53 60.49 L 32.34,60.46 V 60.42 60.4 l 0.01,-0.02 v -0.03 -0.02 -0.02 l 0.01,-0.03 v -0.02 l 0.01,-0.03 v -0.02 l 0.01,-0.03 0.01,-0.03 v -0.03 l 0.01,-0.03 0.01,-0.03 0.01,-0.03 0.01,-0.03 0.02,-0.03 0.01,-0.03 0.01,-0.04 0.01,-0.03 0.02,-0.04 0.01,-0.03 0.02,-0.04 0.02,-0.03 0.01,-0.04 0.02,-0.04 0.02,-0.04 0.02,-0.04 0.02,-0.04 0.02,-0.04 0.02,-0.04 0.02,-0.05 0.03,-0.04 0.02,-0.04 0.02,-0.05 0.03,-0.04 0.02,-0.05 0.02,-0.04 0.03,-0.05 0.02,-0.05 0.02,-0.04 0.03,-0.05 0.02,-0.05 0.02,-0.05 0.03,-0.04 0.02,-0.05 0.02,-0.05 0.03,-0.05 0.02,-0.05 0.02,-0.05 0.03,-0.06 0.02,-0.05 0.02,-0.05 0.03,-0.05 0.02,-0.06 0.02,-0.05 0.03,-0.05 0.02,-0.06 0.02,-0.05 0.03,-0.06 0.02,-0.05 0.02,-0.06 0.03,-0.06 0.02,-0.05 0.02,-0.06 0.03,-0.06 0.02,-0.06 0.02,-0.06 0.02,-0.05 0.02,-0.06 0.02,-0.06 0.02,-0.06 0.02,-0.05 0.02,-0.06 0.02,-0.06 0.01,-0.06 0.02,-0.05 0.01,-0.06 0.02,-0.06 0.01,-0.06 0.02,-0.05 0.01,-0.06 0.01,-0.06 0.01,-0.05 0.01,-0.06 0.01,-0.06 0.01,-0.05 0.01,-0.06 v -0.05 l 0.01,-0.06 0.01,-0.06 V 56.2 l 0.01,-0.06 v -0.05 -0.06 l 0.01,-0.06 V 55.92 55.86 55.81 H 20.82 20.72 L 20.63,55.8 h -0.1 L 20.44,55.79 20.35,55.78 20.26,55.77 20.17,55.76 20.08,55.74 19.99,55.72 19.9,55.7 19.81,55.68 19.73,55.66 19.64,55.63 19.56,55.61 19.47,55.58 19.39,55.54 19.31,55.51 19.23,55.47 19.14,55.43 19.07,55.39 18.99,55.35 18.91,55.31 18.83,55.26 18.75,55.21 18.68,55.16 18.6,55.11 18.53,55.05 18.46,55 18.39,54.94 18.31,54.88 18.24,54.81 18.17,54.75 18.11,54.68 18.04,54.61 17.97,54.54 17.91,54.47 17.85,54.4 17.79,54.33 17.73,54.25 17.68,54.18 17.62,54.11 17.57,54.03 17.52,53.95 17.48,53.88 17.43,53.8 17.39,53.72 17.35,53.64 17.31,53.56 17.28,53.48 17.24,53.4 17.21,53.31 17.18,53.23 17.15,53.14 17.13,53.06 17.1,52.97 17.08,52.89 17.06,52.8 17.04,52.71 17.03,52.62 17.01,52.53 17,52.44 16.99,52.34 v -0.09 l -0.01,-0.09 v -0.1 -0.09 -26.13 -0.09 -0.1 l 0.01,-0.09 v -0.09 l 0.01,-0.1 0.01,-0.09 0.02,-0.09 0.01,-0.09 0.02,-0.09 0.02,-0.08 0.02,-0.09 0.03,-0.09 0.02,-0.08 0.03,-0.09 0.03,-0.08 0.03,-0.09 0.04,-0.08 0.03,-0.08 0.04,-0.08 0.04,-0.08 0.04,-0.08 0.05,-0.08 0.04,-0.07 0.05,-0.08 0.05,-0.08 0.06,-0.07 0.05,-0.07 0.06,-0.08 0.06,-0.07 0.06,-0.07 0.06,-0.07 0.07,-0.07 0.07,-0.07 0.06,-0.07 0.07,-0.06 0.07,-0.07 0.08,-0.06 0.07,-0.06 0.07,-0.05 0.07,-0.06 0.08,-0.05 0.07,-0.05 0.08,-0.05 0.08,-0.05 0.08,-0.04 0.08,-0.04 0.07,-0.04 0.09,-0.04 0.08,-0.04 0.08,-0.03 0.08,-0.03 0.09,-0.04 0.08,-0.02 0.09,-0.03 0.08,-0.02 0.09,-0.02 0.09,-0.02 0.09,-0.02 0.09,-0.02 0.09,-0.01 0.09,-0.01 0.09,-0.01 0.09,-0.01 h 0.1 L 20.72,22 h 0.1 38.41 0.1 z m -38.63,3.07 h -0.02 -0.03 -0.02 l -0.03,0.01 h -0.02 -0.03 l -0.02,0.01 -0.02,0.01 h -0.03 l -0.02,0.01 -0.02,0.01 -0.02,0.01 -0.03,0.01 -0.02,0.01 -0.02,0.02 -0.02,0.01 -0.02,0.01 -0.02,0.02 -0.02,0.01 -0.02,0.02 -0.02,0.02 -0.02,0.01 -0.02,0.02 -0.02,0.02 -0.02,0.02 -0.02,0.02 -0.01,0.02 -0.02,0.02 -0.01,0.02 -0.02,0.02 -0.01,0.02 -0.01,0.03 -0.01,0.02 -0.01,0.02 -0.01,0.02 -0.01,0.03 -0.01,0.02 -0.01,0.02 v 0.02 l -0.01,0.03 -0.01,0.02 v 0.03 0.02 l -0.01,0.03 v 0.02 0.03 0.02 19.98 0.03 0.02 0.03 l 0.01,0.02 v 0.03 0.02 l 0.01,0.02 0.01,0.03 v 0.02 l 0.01,0.03 0.01,0.02 0.01,0.02 0.01,0.02 0.01,0.03 0.01,0.02 0.01,0.02 0.01,0.02 0.02,0.02 0.01,0.02 0.02,0.02 0.01,0.02 0.02,0.02 0.02,0.02 0.02,0.02 0.02,0.02 0.02,0.02 0.02,0.01 0.02,0.02 0.02,0.02 0.02,0.01 0.02,0.01 0.02,0.02 0.02,0.01 0.02,0.01 0.02,0.01 0.03,0.01 0.02,0.01 0.02,0.01 0.03,0.01 h 0.02 l 0.02,0.01 h 0.03 l 0.02,0.01 h 0.03 0.02 l 0.03,0.01 h 0.02 0.03 38.41 0.03 0.03 l 0.02,-0.01 h 0.03 0.02 l 0.03,-0.01 h 0.02 l 0.02,-0.01 h 0.03 l 0.02,-0.01 0.02,-0.01 0.03,-0.01 0.02,-0.01 0.02,-0.01 0.02,-0.01 0.02,-0.01 0.02,-0.02 0.03,-0.01 0.02,-0.01 0.02,-0.02 0.02,-0.02 0.02,-0.01 0.02,-0.02 0.01,-0.02 0.02,-0.01 0.01,-0.02 0.01,-0.01 0.01,-0.02 0.01,-0.01 0.02,-0.02 0.01,-0.02 0.01,-0.02 0.01,-0.02 0.01,-0.02 0.01,-0.02 0.01,-0.02 0.01,-0.02 0.01,-0.03 0.01,-0.02 v -0.03 l 0.01,-0.02 0.01,-0.03 0.01,-0.03 0.01,-0.03 V 45.91 L 59.99,45.88 60,45.85 V 45.82 25.84 25.82 25.79 25.77 25.74 L 59.99,25.72 V 25.69 L 59.98,25.67 V 25.64 L 59.97,25.62 59.96,25.6 V 25.58 L 59.95,25.55 59.94,25.53 59.93,25.51 59.91,25.49 59.9,25.46 59.89,25.44 59.87,25.42 59.86,25.4 59.84,25.38 59.83,25.36 59.81,25.34 59.79,25.32 59.77,25.3 59.76,25.28 59.74,25.27 59.72,25.25 59.7,25.23 59.68,25.22 59.66,25.2 59.63,25.19 59.61,25.18 59.59,25.16 59.57,25.15 59.55,25.14 59.53,25.13 59.5,25.12 59.48,25.11 H 59.46 L 59.43,25.1 59.41,25.09 H 59.39 59.36 L 59.34,25.08 H 59.31 59.29 59.26 59.24 20.82 Z"
       style="fill:#595959;fill-opacity:1" />
    <g
       id="g38"
       style="fill:#595959;fill-opacity:1">
      <path
         inkscape:connector-curvature="0"
         id="use36"
         d="m 59.42,22.01 h 0.1 l 0.09,0.01 0.09,0.01 0.1,0.01 0.09,0.01 0.09,0.02 0.09,0.02 0.08,0.02 0.09,0.02 0.09,0.02 0.08,0.03 0.09,0.02 0.08,0.04 0.08,0.03 0.09,0.03 0.08,0.04 0.08,0.04 0.08,0.04 0.08,0.04 0.07,0.04 0.08,0.05 0.08,0.05 0.07,0.05 0.08,0.05 0.07,0.06 0.08,0.05 0.07,0.06 0.07,0.06 0.07,0.07 0.07,0.06 0.07,0.07 0.06,0.07 0.07,0.07 0.06,0.07 0.06,0.07 0.06,0.07 0.06,0.08 0.06,0.07 0.05,0.07 0.05,0.08 0.05,0.08 0.04,0.07 0.05,0.08 0.04,0.08 0.04,0.08 0.04,0.08 0.04,0.08 0.03,0.08 0.03,0.09 0.03,0.08 0.03,0.09 0.03,0.08 0.02,0.09 0.02,0.09 0.02,0.08 0.02,0.09 0.02,0.09 0.01,0.09 0.01,0.09 0.01,0.1 0.01,0.09 v 0.09 l 0.01,0.1 v 0.09 26.13 0.09 l -0.01,0.1 v 0.09 l -0.01,0.09 -0.01,0.1 -0.01,0.09 -0.01,0.09 -0.02,0.09 -0.02,0.09 -0.02,0.09 -0.02,0.08 -0.02,0.09 -0.03,0.08 -0.03,0.09 -0.03,0.08 -0.03,0.09 -0.03,0.08 -0.04,0.08 -0.04,0.08 -0.04,0.08 -0.04,0.08 -0.05,0.08 -0.04,0.07 -0.05,0.08 -0.05,0.08 -0.05,0.07 -0.06,0.07 -0.06,0.08 -0.06,0.07 -0.06,0.07 -0.06,0.07 -0.07,0.07 -0.06,0.07 -0.07,0.07 -0.07,0.06 -0.07,0.07 -0.07,0.06 -0.07,0.06 -0.08,0.05 -0.07,0.06 -0.08,0.05 -0.07,0.05 -0.08,0.05 -0.08,0.05 -0.07,0.04 -0.08,0.04 -0.08,0.04 -0.08,0.04 -0.08,0.04 -0.09,0.03 -0.08,0.04 -0.08,0.03 -0.09,0.02 -0.08,0.03 -0.09,0.02 -0.09,0.02 -0.08,0.02 -0.09,0.02 -0.09,0.02 -0.09,0.01 -0.1,0.01 -0.09,0.01 -0.09,0.01 h -0.09 l -0.1,0.01 H 59.24 46.17 v 0.05 0.06 l 0.01,0.05 v 0.05 0.06 l 0.01,0.05 v 0.06 l 0.01,0.05 v 0.06 l 0.01,0.05 0.01,0.06 v 0.06 l 0.01,0.05 0.01,0.06 0.01,0.05 0.01,0.06 0.02,0.06 0.01,0.05 0.01,0.06 0.01,0.06 0.02,0.05 0.01,0.06 0.02,0.06 0.02,0.05 0.01,0.06 0.02,0.06 0.02,0.06 0.02,0.06 0.02,0.05 0.02,0.06 0.02,0.06 0.02,0.06 0.03,0.06 0.02,0.06 0.02,0.06 0.03,0.05 0.02,0.06 0.02,0.06 0.03,0.05 0.02,0.06 0.02,0.06 0.03,0.05 0.02,0.06 0.02,0.05 0.03,0.05 0.02,0.06 0.02,0.05 0.03,0.05 0.02,0.06 0.02,0.05 0.03,0.05 0.02,0.05 0.02,0.05 0.03,0.05 0.02,0.05 0.02,0.05 0.03,0.05 0.02,0.04 0.02,0.05 0.03,0.05 0.02,0.05 0.02,0.04 0.03,0.05 0.02,0.04 0.02,0.05 0.03,0.04 0.02,0.05 0.02,0.04 0.02,0.04 0.02,0.04 0.02,0.05 0.02,0.04 0.02,0.04 0.02,0.03 0.02,0.04 0.01,0.04 0.02,0.03 0.01,0.04 0.02,0.04 0.01,0.03 0.02,0.03 0.01,0.03 0.01,0.04 0.01,0.03 0.01,0.03 0.01,0.03 0.01,0.03 0.01,0.02 v 0.03 l 0.01,0.03 0.01,0.02 v 0.03 l 0.01,0.02 v 0.02 0.03 l 0.01,0.02 v 0.02 0.02 0.02 0.04 0.03 0.04 l -0.01,0.04 v 0.03 0.04 l -0.01,0.03 -0.01,0.04 v 0.04 l -0.01,0.03 -0.01,0.04 -0.01,0.03 -0.01,0.03 -0.01,0.04 -0.01,0.03 -0.02,0.03 -0.01,0.04 -0.02,0.03 -0.01,0.03 -0.02,0.03 -0.01,0.03 -0.02,0.04 -0.02,0.03 -0.02,0.03 -0.02,0.03 -0.02,0.03 -0.03,0.03 -0.02,0.03 -0.02,0.03 -0.03,0.02 -0.02,0.03 -0.03,0.03 -0.03,0.03 -0.02,0.03 -0.03,0.02 -0.03,0.03 -0.03,0.02 -0.03,0.03 -0.03,0.02 -0.03,0.02 -0.03,0.02 -0.03,0.02 -0.03,0.02 -0.03,0.02 -0.03,0.02 -0.03,0.02 -0.03,0.01 -0.04,0.02 -0.03,0.01 -0.03,0.02 -0.03,0.01 -0.04,0.01 -0.03,0.01 -0.03,0.01 -0.04,0.01 -0.03,0.01 -0.04,0.01 -0.03,0.01 h -0.04 l -0.04,0.01 h -0.03 l -0.04,0.01 H 46.29 46.25 46.21 46.17 33.88 33.84 33.81 33.77 33.73 L 33.69,61.94 H 33.66 L 33.62,61.93 H 33.59 L 33.55,61.92 33.52,61.91 33.48,61.9 33.45,61.89 33.41,61.88 33.38,61.87 33.35,61.86 33.31,61.85 33.28,61.83 33.25,61.82 33.22,61.8 33.19,61.79 33.15,61.77 33.12,61.75 33.09,61.73 33.06,61.71 33.03,61.69 33,61.67 32.97,61.65 32.94,61.63 32.91,61.6 32.88,61.58 32.86,61.55 32.83,61.53 32.8,61.5 32.77,61.47 32.75,61.44 32.72,61.41 32.7,61.39 32.67,61.36 32.65,61.33 32.63,61.3 32.61,61.27 32.58,61.24 32.57,61.21 32.55,61.18 32.53,61.14 32.51,61.11 32.49,61.08 32.48,61.05 32.46,61.02 32.45,60.98 32.44,60.95 32.43,60.92 32.41,60.88 32.4,60.85 32.39,60.82 V 60.78 L 32.38,60.75 32.37,60.71 32.36,60.67 V 60.64 L 32.35,60.6 V 60.57 60.53 60.49 L 32.34,60.46 V 60.42 60.4 l 0.01,-0.02 v -0.03 -0.02 -0.02 l 0.01,-0.03 v -0.02 l 0.01,-0.03 v -0.02 l 0.01,-0.03 0.01,-0.03 v -0.03 l 0.01,-0.03 0.01,-0.03 0.01,-0.03 0.01,-0.03 0.02,-0.03 0.01,-0.03 0.01,-0.04 0.01,-0.03 0.02,-0.04 0.01,-0.03 0.02,-0.04 0.02,-0.03 0.01,-0.04 0.02,-0.04 0.02,-0.04 0.02,-0.04 0.02,-0.04 0.02,-0.04 0.02,-0.04 0.02,-0.05 0.03,-0.04 0.02,-0.04 0.02,-0.05 0.03,-0.04 0.02,-0.05 0.02,-0.04 0.03,-0.05 0.02,-0.05 0.02,-0.04 0.03,-0.05 0.02,-0.05 0.02,-0.05 0.03,-0.04 0.02,-0.05 0.02,-0.05 0.03,-0.05 0.02,-0.05 0.02,-0.05 0.03,-0.06 0.02,-0.05 0.02,-0.05 0.03,-0.05 0.02,-0.06 0.02,-0.05 0.03,-0.05 0.02,-0.06 0.02,-0.05 0.03,-0.06 0.02,-0.05 0.02,-0.06 0.03,-0.06 0.02,-0.05 0.02,-0.06 0.03,-0.06 0.02,-0.06 0.02,-0.06 0.02,-0.05 0.02,-0.06 0.02,-0.06 0.02,-0.06 0.02,-0.05 0.02,-0.06 0.02,-0.06 0.01,-0.06 0.02,-0.05 0.01,-0.06 0.02,-0.06 0.01,-0.06 0.02,-0.05 0.01,-0.06 0.01,-0.06 0.01,-0.05 0.01,-0.06 0.01,-0.06 0.01,-0.05 0.01,-0.06 v -0.05 l 0.01,-0.06 0.01,-0.06 V 56.2 l 0.01,-0.06 v -0.05 -0.06 l 0.01,-0.06 V 55.92 55.86 55.81 H 20.82 20.72 L 20.63,55.8 h -0.1 L 20.44,55.79 20.35,55.78 20.26,55.77 20.17,55.76 20.08,55.74 19.99,55.72 19.9,55.7 19.81,55.68 19.73,55.66 19.64,55.63 19.56,55.61 19.47,55.58 19.39,55.54 19.31,55.51 19.23,55.47 19.14,55.43 19.07,55.39 18.99,55.35 18.91,55.31 18.83,55.26 18.75,55.21 18.68,55.16 18.6,55.11 18.53,55.05 18.46,55 18.39,54.94 18.31,54.88 18.24,54.81 18.17,54.75 18.11,54.68 18.04,54.61 17.97,54.54 17.91,54.47 17.85,54.4 17.79,54.33 17.73,54.25 17.68,54.18 17.62,54.11 17.57,54.03 17.52,53.95 17.48,53.88 17.43,53.8 17.39,53.72 17.35,53.64 17.31,53.56 17.28,53.48 17.24,53.4 17.21,53.31 17.18,53.23 17.15,53.14 17.13,53.06 17.1,52.97 17.08,52.89 17.06,52.8 17.04,52.71 17.03,52.62 17.01,52.53 17,52.44 16.99,52.34 v -0.09 l -0.01,-0.09 v -0.1 -0.09 -26.13 -0.09 -0.1 l 0.01,-0.09 v -0.09 l 0.01,-0.1 0.01,-0.09 0.02,-0.09 0.01,-0.09 0.02,-0.09 0.02,-0.08 0.02,-0.09 0.03,-0.09 0.02,-0.08 0.03,-0.09 0.03,-0.08 0.03,-0.09 0.04,-0.08 0.03,-0.08 0.04,-0.08 0.04,-0.08 0.04,-0.08 0.05,-0.08 0.04,-0.07 0.05,-0.08 0.05,-0.08 0.06,-0.07 0.05,-0.07 0.06,-0.08 0.06,-0.07 0.06,-0.07 0.06,-0.07 0.07,-0.07 0.07,-0.07 0.06,-0.07 0.07,-0.06 0.07,-0.07 0.08,-0.06 0.07,-0.06 0.07,-0.05 0.07,-0.06 0.08,-0.05 0.07,-0.05 0.08,-0.05 0.08,-0.05 0.08,-0.04 0.08,-0.04 0.07,-0.04 0.09,-0.04 0.08,-0.04 0.08,-0.03 0.08,-0.03 0.09,-0.04 0.08,-0.02 0.09,-0.03 0.08,-0.02 0.09,-0.02 0.09,-0.02 0.09,-0.02 0.09,-0.02 0.09,-0.01 0.09,-0.01 0.09,-0.01 0.09,-0.01 h 0.1 L 20.72,22 h 0.1 38.41 0.1 z m -38.63,3.07 h -0.02 -0.03 -0.02 l -0.03,0.01 h -0.02 -0.03 l -0.02,0.01 -0.02,0.01 h -0.03 l -0.02,0.01 -0.02,0.01 -0.02,0.01 -0.03,0.01 -0.02,0.01 -0.02,0.02 -0.02,0.01 -0.02,0.01 -0.02,0.02 -0.02,0.01 -0.02,0.02 -0.02,0.02 -0.02,0.01 -0.02,0.02 -0.02,0.02 -0.02,0.02 -0.02,0.02 -0.01,0.02 -0.02,0.02 -0.01,0.02 -0.02,0.02 -0.01,0.02 -0.01,0.03 -0.01,0.02 -0.01,0.02 -0.01,0.02 -0.01,0.03 -0.01,0.02 -0.01,0.02 v 0.02 l -0.01,0.03 -0.01,0.02 v 0.03 0.02 l -0.01,0.03 v 0.02 0.03 0.02 19.98 0.03 0.02 0.03 l 0.01,0.02 v 0.03 0.02 l 0.01,0.02 0.01,0.03 v 0.02 l 0.01,0.03 0.01,0.02 0.01,0.02 0.01,0.02 0.01,0.03 0.01,0.02 0.01,0.02 0.01,0.02 0.02,0.02 0.01,0.02 0.02,0.02 0.01,0.02 0.02,0.02 0.02,0.02 0.02,0.02 0.02,0.02 0.02,0.02 0.02,0.01 0.02,0.02 0.02,0.02 0.02,0.01 0.02,0.01 0.02,0.02 0.02,0.01 0.02,0.01 0.02,0.01 0.03,0.01 0.02,0.01 0.02,0.01 0.03,0.01 h 0.02 l 0.02,0.01 h 0.03 l 0.02,0.01 h 0.03 0.02 l 0.03,0.01 h 0.02 0.03 38.41 0.03 0.03 l 0.02,-0.01 h 0.03 0.02 l 0.03,-0.01 h 0.02 l 0.02,-0.01 h 0.03 l 0.02,-0.01 0.02,-0.01 0.03,-0.01 0.02,-0.01 0.02,-0.01 0.02,-0.01 0.02,-0.01 0.02,-0.02 0.03,-0.01 0.02,-0.01 0.02,-0.02 0.02,-0.02 0.02,-0.01 0.02,-0.02 0.01,-0.02 0.02,-0.01 0.01,-0.02 0.01,-0.01 0.01,-0.02 0.01,-0.01 0.02,-0.02 0.01,-0.02 0.01,-0.02 0.01,-0.02 0.01,-0.02 0.01,-0.02 0.01,-0.02 0.01,-0.02 0.01,-0.03 0.01,-0.02 v -0.03 l 0.01,-0.02 0.01,-0.03 0.01,-0.03 0.01,-0.03 V 45.91 L 59.99,45.88 60,45.85 V 45.82 25.84 25.82 25.79 25.77 25.74 L 59.99,25.72 V 25.69 L 59.98,25.67 V 25.64 L 59.97,25.62 59.96,25.6 V 25.58 L 59.95,25.55 59.94,25.53 59.93,25.51 59.91,25.49 59.9,25.46 59.89,25.44 59.87,25.42 59.86,25.4 59.84,25.38 59.83,25.36 59.81,25.34 59.79,25.32 59.77,25.3 59.76,25.28 59.74,25.27 59.72,25.25 59.7,25.23 59.68,25.22 59.66,25.2 59.63,25.19 59.61,25.18 59.59,25.16 59.57,25.15 59.55,25.14 59.53,25.13 59.5,25.12 59.48,25.11 H 59.46 L 59.43,25.1 59.41,25.09 H 59.39 59.36 L 59.34,25.08 H 59.31 59.29 59.26 59.24 20.82 Z"
         style="fill:#595959;fill-opacity:1;stroke:#000000;stroke-width:1;stroke-opacity:0" />
    </g>
  </g>
</svg>
