<?xml version="1.0" encoding="UTF-8"?>
<svg width="20px" height="20px" viewBox="0 0 20 20" version="1.1" xmlns="http://www.w3.org/2000/svg" xmlns:xlink="http://www.w3.org/1999/xlink">
    <!-- Generator: Sketch 43.2 (39069) - http://www.bohemiancoding.com/sketch -->
    <title>agent_available</title>
    <desc>Created with Sketch.</desc>
    <defs></defs>
    <g id="Symbols" stroke="none" stroke-width="1" fill="none" fill-rule="evenodd">
        <g id="agent_available" fill="#2BA41B">
            <path d="M17.6015322,8.57118383 C17.623227,8.49833994 17.6240696,8.4217956 17.6240696,8.34203051 L17.6240696,7.48976382 C17.6240696,5.47329685 16.8440384,3.58853822 15.4068434,2.18237013 C13.9687356,0.775174143 12.0447758,0 9.97969433,0 C7.91426178,0 5.99879741,0.775174143 4.56061942,2.18237013 C3.12377541,3.58853822 2.34655268,5.47329685 2.34655268,7.48976382 L2.34655268,8.34203051 C2.34655268,8.4217956 2.34739519,8.49833994 2.36901982,8.57118383 C1.05202398,8.67315158 -3.78653235e-29,10.0436858 -3.78653235e-29,11.7140243 C-3.78653235e-29,13.3919008 1.05286649,14.767506 2.37779605,14.8585095 C2.73214502,15.3242855 3.30365297,15.6075064 3.91202108,15.6075064 C4.96980226,15.6075064 5.82881944,14.7669578 5.82881944,13.7339862 L5.82881944,9.69385692 C5.82881944,8.69295579 5.04246943,7.87282813 4.03158841,7.8227351 L4.03158841,7.48976382 C4.03158841,4.21226834 6.63398568,1.64464104 9.98545154,1.64464104 C13.3365663,1.64464104 15.9390338,4.21226834 15.9390338,7.48976382 L15.9390338,7.8227351 C14.9280826,7.87303371 14.1418028,8.6932299 14.1418028,9.69385692 L14.1418028,13.7339862 C14.1418028,14.409591 14.5098427,15.0026897 15.0605685,15.3323031 C14.4330331,16.2332923 13.5510574,16.9464498 12.5071777,17.3813203 C12.2214237,17.0706202 11.8073262,16.8747023 11.34682,16.8747023 L9.18541061,16.8747023 C8.32562113,16.8747023 7.62626109,17.5572969 7.62626109,18.396475 L7.62626109,18.4229948 C7.62626109,19.2621729 8.32562113,19.9447675 9.18541061,19.9447675 L11.34682,19.9447675 C11.9792701,19.9447675 12.5247302,19.5750659 12.7688497,19.04556 C13.8011447,18.6791477 14.7440627,18.0981782 15.5377145,17.325471 C16.1290918,16.7499152 16.6112227,16.0934978 16.9746287,15.3807515 C17.2167824,15.2530863 17.43015,15.0761503 17.5954942,14.8585095 C18.9207046,14.7672319 19.9704818,13.3919008 19.9704818,11.7140243 C19.9704818,10.0433431 18.918528,8.67315158 17.6015322,8.57118383" id="Fill-1-Copy"></path>
        </g>
    </g>
</svg>