<svg xmlns="http://www.w3.org/2000/svg" width="20" height="20" style="background:transparent" viewBox="0 0 20 20">
    <g fill="none" fill-rule="evenodd" stroke="#FFF" stroke-width="2">
        <circle cx="9.091" cy="9.091" r="9.091" fill="#2BA41B" transform="translate(.91 .91)"/>
        <path stroke-linecap="round" stroke-linejoin="round" d="M6.416 8.091l3.612 1.892 3.889-4.214"/>
    </g>
</svg>
